<?xml version="1.0" encoding="UTF-8" standalone="no"?>
<svg
   xmlns:svg="http://www.w3.org/2000/svg"
   xmlns="http://www.w3.org/2000/svg"
   height="166.23486"
   version="1.1"
   width="618.75934">
  <path
     d="m 502.86787,89.225694 h 13.16396"
     style="fill:none;stroke:#000000;stroke-width:2.63279247"
     id="path4"/>
  <path
     d="m 405.45455,89.225694 h 13.16396"
     style="fill:none;stroke:#000000;stroke-width:2.63279247"
     id="path6"/>
  <path
     d="M 234.32304,89.225694 H 247.487"
     style="fill:none;stroke:#000000;stroke-width:2.63279247"
     id="path8"/>
  <path
     d="m 193.51476,89.225694 h 13.16396"
     style="fill:none;stroke:#000000;stroke-width:2.63279247"
     id="path10"/>
  <path
     d="m 110.5818,89.225694 h 13.16396"
     style="fill:none;stroke:#000000;stroke-width:2.63279247"
     id="path12"/>
  <path
     d="m 418.61851,89.225694 q 13.16396,0 13.16396,-13.16396 v -3.290991 q 0,-13.163962 13.16396,-13.163962 h 31.59351 q 13.16396,0 13.16396,13.163962 v 3.290991 q 0,13.16396 13.16397,13.16396"
     style="fill:none;stroke:#000000;stroke-width:2.63279247"
     id="path14"/>
  <path
     d="M 502.86787,89.225694 H 476.53994"
     style="fill:none;stroke:#000000;stroke-width:2.63279247"
     id="path16"/>
  <path
     d="m 418.61851,89.225694 h 26.32792"
     style="fill:none;stroke:#000000;stroke-width:2.63279247"
     id="path18"/>
  <path
     d="M 405.45455,89.225694 H 392.29059"
     style="fill:none;stroke:#000000;stroke-width:2.63279247"
     id="path20"/>
  <path
     d="m 247.487,89.225694 h 13.16396"
     style="fill:none;stroke:#000000;stroke-width:2.63279247"
     id="path22"/>
  <path
     d="m 392.29059,89.225694 q -13.16397,0 -13.16397,13.163956 v 19.74595 q 0,13.16396 -13.16396,13.16396 h 0"
     style="fill:none;stroke:#000000;stroke-width:2.63279247"
     id="path24"/>
  <path
     d="m 260.65096,89.225694 q 13.16397,0 13.16397,13.163956 v 19.74595 q 0,13.16396 13.16396,13.16396 h 0"
     style="fill:none;stroke:#000000;stroke-width:2.63279247"
     id="path26"/>
  <path
     d="m 392.29059,89.225694 c -13.16397,0 -13.16397,0 -39.49189,0"
     style="fill:none;stroke:#000000;stroke-width:2.63279247"
     id="path28"/>
  <path
     d="m 260.65096,89.225694 c 13.16397,0 13.16397,0 39.49189,0"
     style="fill:none;stroke:#000000;stroke-width:2.63279247"
     id="path30"/>
  <path
     d="m 392.29059,89.225694 q -13.16397,0 -13.16397,-13.16396 V 56.31579 q 0,-13.163962 -13.16396,-13.163962 h -16.45495"
     style="fill:none;stroke:#000000;stroke-width:2.63279247"
     id="path32"/>
  <path
     d="m 260.65096,89.225694 q 13.16397,0 13.16397,-13.16396 V 56.31579 q 0,-13.163962 13.16396,-13.163962 h 16.45495"
     style="fill:none;stroke:#000000;stroke-width:2.63279247"
     id="path34"/>
  <path
     d="m 180.3508,89.225694 q 13.16396,0 13.16396,13.163956 v 3.29099 q 0,13.16397 -13.16396,13.16397 h -43.44108 q -13.16396,0 -13.16396,-13.16397 v -3.29099 q 0,-13.163956 13.16396,-13.163956"
     style="fill:none;stroke:#000000;stroke-width:2.63279247"
     id="path36"/>
  <path
     d="M 193.51476,89.225694 H 180.3508"
     style="fill:none;stroke:#000000;stroke-width:2.63279247"
     id="path38"/>
  <path
     d="m 123.74576,89.225694 h 13.16396"
     style="fill:none;stroke:#000000;stroke-width:2.63279247"
     id="path40"/>
  <desc
     id="desc42">Created with Raphaël 2.1.0</desc>
  <defs
     id="defs44" />
  <rect
     x="206.67871"
     y="72.770744"
     width="27.64432"
     height="32.909904"
     r="0"
     rx="3.9491887"
     ry="3.9491887"
     style="fill:#dae9e5;stroke:#dae9e5;stroke-width:1.31639624"
     id="rect46" />
  <text
     x="220.50089"
     y="89.225693"
     font="10px &quot;Arial&quot;"
     style="font-size:15.79675484px;font-style:normal;font-variant:normal;font-weight:normal;line-height:normal;text-anchor:middle;fill:#000000;stroke:none;font-family:Arial"
     font-size="12px"
     id="text48">
    <tspan
       dy="5.9237828"
       id="tspan50">&quot; &quot;</tspan>
  </text>
  <rect
     x="21.562796"
     y="72.66703"
     width="89.122711"
     height="33.117336"
     r="0"
     rx="2.7850847"
     ry="3.974081"
     style="fill:#bada55;stroke:#bada55;stroke-width:1.10896111"
     id="rect52" />
  <text
     x="47.394775"
     y="89.225693"
     font="10px &quot;Arial&quot;"
     style="font-size:15.79675484px;font-style:normal;font-variant:normal;font-weight:normal;line-height:normal;text-anchor:middle;fill:#000000;stroke:none;font-family:Arial"
     font-size="12px"
     id="text54">
    <tspan
       id="tspan56"></tspan>
  </text>
  <text
     x="66.728333"
     y="94.361168"
     font="10px &quot;Arial&quot;"
     style="font-size:15.79675484px;font-style:normal;font-variant:normal;font-weight:normal;line-height:normal;text-anchor:middle;fill:#000000;stroke:none;font-family:Arial"
     font-size="12px"
     id="text3087">
    <tspan
       id="tspan3089">boundary</tspan>
  </text>
  <rect
     x="515.90363"
     y="72.642578"
     width="81.317352"
     height="33.166233"
     r="0"
     rx="2.5411673"
     ry="3.979948"
     style="fill:#bada55;stroke:#bada55;stroke-width:1.06006885"
     id="rect58" />
  <text
     x="556.56232"
     y="94.663254"
     font="10px &quot;Arial&quot;"
     style="font-size:15.79675484px;font-style:normal;font-variant:normal;font-weight:normal;line-height:normal;text-anchor:middle;fill:#000000;stroke:none;font-family:Arial"
     font-size="12px"
     id="text60">
    <tspan
       id="tspan62">boundary</tspan>
  </text>
  <rect
     x="247.487"
     y="13.532914"
     width="157.96754"
     height="151.38556"
     r="0"
     rx="3.9491887"
     ry="3.9491887"
     style="fill:none;stroke:#a0a0a0;stroke-width:2.63279247;stroke-dasharray:7.89837727, 2.63279242"
     id="rect64" />
  <text
     x="276.44772"
     y="4.9763379"
     font="10px &quot;Arial&quot;"
     style="font-size:13.16396236px;font-style:normal;font-variant:normal;font-weight:normal;line-height:normal;text-anchor:middle;fill:#000000;stroke:none;font-family:Arial"
     font-size="10px"
     id="text66">
    <tspan
       dy="4.6073866"
       id="tspan68">Group #1</tspan>
  </text>
  <rect
     x="286.97888"
     y="118.8446"
     width="78.983772"
     height="32.909904"
     r="0"
     rx="3.9491887"
     ry="3.9491887"
     style="fill:#dae9e5;stroke:#dae9e5;stroke-width:1.31639624"
     id="rect70" />
  <text
     x="326.47076"
     y="135.29956"
     font="10px &quot;Arial&quot;"
     style="font-size:15.79675484px;font-style:normal;font-variant:normal;font-weight:normal;line-height:normal;text-anchor:middle;fill:#000000;stroke:none;font-family:Arial"
     font-size="12px"
     id="text72">
    <tspan
       dy="5.9237828"
       id="tspan74">&quot;chicken&quot;</tspan>
  </text>
  <rect
     x="300.14285"
     y="72.770744"
     width="52.655849"
     height="32.909904"
     r="0"
     rx="3.9491887"
     ry="3.9491887"
     style="fill:#dae9e5;stroke:#dae9e5;stroke-width:1.31639624"
     id="rect76" />
  <text
     x="326.47076"
     y="89.225693"
     font="10px &quot;Arial&quot;"
     style="font-size:15.79675484px;font-style:normal;font-variant:normal;font-weight:normal;line-height:normal;text-anchor:middle;fill:#000000;stroke:none;font-family:Arial"
     font-size="12px"
     id="text78">
    <tspan
       dy="5.9237828"
       id="tspan80">&quot;cow&quot;</tspan>
  </text>
  <rect
     x="303.43384"
     y="26.696877"
     width="46.073868"
     height="32.909904"
     r="0"
     rx="3.9491887"
     ry="3.9491887"
     style="fill:#dae9e5;stroke:#dae9e5;stroke-width:1.31639624"
     id="rect82" />
  <text
     x="326.47076"
     y="43.151829"
     font="10px &quot;Arial&quot;"
     style="font-size:15.79675484px;font-style:normal;font-variant:normal;font-weight:normal;line-height:normal;text-anchor:middle;fill:#000000;stroke:none;font-family:Arial"
     font-size="12px"
     id="text84">
    <tspan
       dy="5.9237828"
       id="tspan86">&quot;pig&quot;</tspan>
  </text>
  <rect
     x="136.90971"
     y="72.770744"
     width="43.441074"
     height="32.909904"
     r="0"
     rx="3.9491887"
     ry="3.9491887"
     style="fill:#bada55;stroke:#bada55;stroke-width:1.31639624"
     id="rect88" />
  <text
     x="158.63025"
     y="89.225693"
     font="10px &quot;Arial&quot;"
     style="font-size:15.79675484px;font-style:normal;font-variant:normal;font-weight:normal;line-height:normal;text-anchor:middle;fill:#000000;stroke:none;font-family:Arial"
     font-size="12px"
     id="text90">
    <tspan
       dy="5.9237828"
       id="tspan92">digit</tspan>
  </text>
  <rect
     x="444.94644"
     y="72.770744"
     width="31.59351"
     height="32.909904"
     r="0"
     rx="3.9491887"
     ry="3.9491887"
     style="fill:#dae9e5;stroke:#dae9e5;stroke-width:1.31639624"
     id="rect94" />
  <text
     x="460.74319"
     y="89.225693"
     font="10px &quot;Arial&quot;"
     style="font-size:15.79675484px;font-style:normal;font-variant:normal;font-weight:normal;line-height:normal;text-anchor:middle;fill:#000000;stroke:none;font-family:Arial"
     font-size="12px"
     id="text96">
    <tspan
       dy="5.9237828"
       id="tspan98">&quot;s&quot;</tspan>
  </text>
  <path
     d="M 7.8983762,89.225694 H 21.062338"
     style="fill:none;stroke:#000000;stroke-width:2.63279247"
     id="path100"/>
  <circle
     cx="10"
     cy="80.5"
     r="5"
     style="fill:#6b6659;stroke:#000000;stroke-width:2"
     id="circle102"
     transform="matrix(1.3163962,0,0,1.3163962,-5.2655848,-16.744199)" />
  <path
     d="M 610.86099,88.62152 H 597.69703"
     style="fill:none;stroke:#000000;stroke-width:2.63279247"
     id="path104"/>
  <circle
     cx="530"
     cy="80.5"
     r="5"
     style="fill:#6b6659;stroke:#000000;stroke-width:2"
     id="circle106"
     transform="matrix(1.3163962,0,0,1.3163962,-86.82901,-17.348373)" />
</svg>
